…
**MY ASSUMPTION** : nationwide_number : Unique identifier assigned to
each astronaut within their respective country, likely based on their
rank or order of selection

Order the dataset by the name column, below tibble has unique astronauts
grouped by nation and nationwide_number

``` r
uniqueness_check <- astro |>
  distinct(nationality, nationwide_number,name) |>
  arrange(name)
uniqueness_check
```

    ## # A tibble: 566 × 3
    ##    nationality    nationwide_number name                            
    ##    <chr>                      <dbl> <chr>                           
    ##  1 U.S.                         314 Acaba, Joseph M.                
    ##  2 U.S.                         104 Acton, Loren Wilbur             
    ##  3 U.S.                         131 Adamson, James C.               
    ##  4 U.S.S.R/Russia                70 Afanasyev, Viktor Mikhaylovich  
    ##  5 Kazakhstan                     1 Aidyn (Aydyn) Akanovich Aimbetov
    ##  6 U.S.                         144 Akers, Thomas D.                
    ##  7 Japan                          1 Akiyama, Toyohiro               
    ##  8 U.S.S.R/Russia                36 Aksyonov, Vladimir              
    ##  9 UAE                            1 Al Mansoori, Hazzaa             
    ## 10 Saudi Arabia                   1 Al-saud, Sultan bin Salman      
    ## # ℹ 556 more rows
…
|     |
|-----|
|     |

Lets visualize this:

``` r
Unique_below_100 <- uniqueness_check |>
  distinct(nationality, nationwide_number,name) |>
  filter(nationwide_number >= 0, nationwide_number <= 60 ) 
  
Unique_below_100
```

    ## # A tibble: 213 × 3
    ##    nationality    nationwide_number name                            
    ##    <chr>                      <dbl> <chr>                           
    ##  1 Kazakhstan                     1 Aidyn (Aydyn) Akanovich Aimbetov
    ##  2 Japan                          1 Akiyama, Toyohiro               
    ##  3 U.S.S.R/Russia                36 Aksyonov, Vladimir              
    ##  4 UAE                            1 Al Mansoori, Hazzaa             
    ##  5 Saudi Arabia                   1 Al-saud, Sultan bin Salman      
    ##  6 U.S.                          18 Aldrin, Edwin Eugene, Jr.       
    ##  7 U.S.S.R/Russia                55 Aleksandrov, Aleksandr          
    ##  8 Bulgaria                       2 Aleksandrov, Aleksandr          
    ##  9 U.S.                          50 Allen, Joseph P.                
    ## 10 U.S.                          21 Anders, William Alison          
    ## # ℹ 203 more rows
…
Lets visualize the unclear data closely: Filtering the data where
nationwide_number is more than 310 to visualize the anomaly clearly:

``` r
US_Unique_above_300 <- uniqueness_check |>
  distinct(nationality, nationwide_number,name) |>
  filter(nationwide_number > 310 ) |>
  filter(nationality =='U.S.')
US_Unique_above_300
```

    ## # A tibble: 39 × 3
    ##    nationality nationwide_number name                    
    ##    <chr>                   <dbl> <chr>                   
    ##  1 U.S.                      314 Acaba, Joseph M.        
    ##  2 U.S.                      313 Antonelli, Dominic A.   
    ##  3 U.S.                      315 Arnold, Richard R., II  
    ##  4 U.S.                      343 Auñón-Chancellor, Serena
    ##  5 U.S.                      316 Barratt, Michael R.     
    ##  6 U.S.                      311 Bowen, Stephen G.       
    ##  7 U.S.                      329 Bresnik, Randolph J.    
    ##  8 U.S.                      322 Cassidy, Christopher J. 
    ##  9 U.S.                      331 Creamer, Timothy J.     
    ## 10 U.S.                      333 Dutton, James P.        
    ## # ℹ 29 more rows
…
