…
``` r
#ts_data <- response |> as_tsibble(index = mission_date)
```

Since i ended up getting error, i will have to remove duplicates from
this column. tsibble objects should have unique rows for each
combination of key and index.

``` r
duplicates <- response |> duplicates(index = mission_date)
print(duplicates)
```

    ## # A tibble: 1,276 × 2
    ##    mission_date total_hrs_sum
    ##    <date>               <dbl>
    ##  1 1961-01-01            1.77
    ##  2 1961-01-01           25.3 
    ##  3 1962-01-01          218   
    ##  4 1998-01-01          218   
    ##  5 1962-01-01            5   
    ##  6 1962-01-01          519.  
    ##  7 1970-01-01          519.  
    ##  8 1962-01-01          448.  
    ##  9 1974-01-01          448.  
    ## 10 1962-01-01          295.  
    ## # ℹ 1,266 more rows
…
