…
2.  **Total Time in Space (hours)**: This can be a sum of hours_mission
    and total_eva_hrs (extra-vehicular activity hours).

``` r
astro <- astro |>
  mutate(age_at_first_mission = year_of_mission - year_of_birth,
         total_time_in_space = hours_mission + total_eva_hrs)
```

``` r
astro
```

    ## # A tibble: 1,277 × 25
    ##       id number nationwide_number name           sex   year_of_birth nationality
    ##    <dbl>  <dbl>             <dbl> <chr>          <chr>         <dbl> <chr>      
    ##  1     1      1                 1 Gagarin, Yuri  male           1934 U.S.S.R/Ru…
    ##  2     2      2                 2 Titov, Gherman male           1935 U.S.S.R/Ru…
    ##  3     3      3                 1 Glenn, John H… male           1921 U.S.       
    ##  4     4      3                 1 Glenn, John H… male           1921 U.S.       
    ##  5     5      4                 2 Carpenter, M.… male           1925 U.S.       
    ##  6     6      5                 2 Nikolayev, An… male           1929 U.S.S.R/Ru…
    ##  7     7      5                 2 Nikolayev, An… male           1929 U.S.S.R/Ru…
    ##  8     8      6                 4 Popovich, Pav… male           1930 U.S.S.R/Ru…
    ##  9     9      6                 4 Popovich, Pav… male           1930 U.S.S.R/Ru…
    ## 10    10      7                 3 Schirra, Walt… male           1923 U.S.       
    ## # ℹ 1,267 more rows
    ## # ℹ 18 more variables: military_civilian <chr>, selection <chr>,
    ## #   year_of_selection <dbl>, mission_number <dbl>,
    ## #   total_number_of_missions <dbl>, occupation <chr>, year_of_mission <dbl>,
    ## #   mission_title <chr>, ascend_shuttle <chr>, in_orbit <chr>,
    ## #   descend_shuttle <chr>, hours_mission <dbl>, total_hrs_sum <dbl>,
    ## #   field21 <dbl>, eva_hrs_mission <dbl>, total_eva_hrs <dbl>, …
…
