…
**Create 3 Group By Data Frames**

**Group by nationality and summarize total missions and total EVA
hours:**

``` r
nationality_summary <- data |>
  group_by(nationality) |>
  summarize(total_missions = sum(total_number_of_missions),
            total_eva_hours = sum(total_eva_hrs))
print(nationality_summary)
```

    ## # A tibble: 40 × 3
    ##    nationality    total_missions total_eva_hours
    ##    <chr>                   <dbl>           <dbl>
    ##  1 Afghanistan                 1            0   
    ##  2 Australia                  16           25.4 
    ##  3 Austria                     1            0   
    ##  4 Belgium                     5            0   
    ##  5 Brazil                      1            0   
    ##  6 Bulgaria                    2            0   
    ##  7 Canada                     38          101.  
    ##  8 China                      22            0.26
    ##  9 Cuba                        1            0   
    ## 10 Czechoslovakia              1            0   
    ## # ℹ 30 more rows
…
``` r
#Choosing nationality dataframe
Low_nationality_grp <- nationality_summary |>
    filter(total_missions == min(total_missions))

#special tag to the lowest probability
nationality_summary <- nationality_summary |>
   mutate(tag = if_else(total_missions == min(total_missions), "Low_Probability", "Normal"))
```

``` r
Low_nationality_grp
```

    ## # A tibble: 23 × 3
    ##    nationality    total_missions total_eva_hours
    ##    <chr>                   <dbl>           <dbl>
    ##  1 Afghanistan                 1               0
    ##  2 Austria                     1               0
    ##  3 Brazil                      1               0
    ##  4 Cuba                        1               0
    ##  5 Czechoslovakia              1               0
    ##  6 Denmark                     1               0
    ##  7 Hungry                      1               0
    ##  8 India                       1               0
    ##  9 Israel                      1               0
    ## 10 Kazakhstan                  1               0
    ## # ℹ 13 more rows

``` r
nationality_summary
```

    ## # A tibble: 40 × 4
    ##    nationality    total_missions total_eva_hours tag            
    ##    <chr>                   <dbl>           <dbl> <chr>          
    ##  1 Afghanistan                 1            0    Low_Probability
    ##  2 Australia                  16           25.4  Normal         
    ##  3 Austria                     1            0    Low_Probability
    ##  4 Belgium                     5            0    Normal         
    ##  5 Brazil                      1            0    Low_Probability
    ##  6 Bulgaria                    2            0    Normal         
    ##  7 Canada                     38          101.   Normal         
    ##  8 China                      22            0.26 Normal         
    ##  9 Cuba                        1            0    Low_Probability
    ## 10 Czechoslovakia              1            0    Low_Probability
    ## # ℹ 30 more rows
…
``` r
existing_combinations <- data |>
  select(nationality, sex) |>
  distinct()

existing_combinations
```

    ## # A tibble: 48 × 2
    ##    nationality    sex   
    ##    <chr>          <chr> 
    ##  1 U.S.S.R/Russia male  
    ##  2 U.S.           male  
    ##  3 U.S.S.R/Russia female
    ##  4 Mongolia       male  
    ##  5 Romania        male  
    ##  6 France         male  
    ##  7 Czechoslovakia male  
    ##  8 Poland         male  
    ##  9 Germany        male  
    ## 10 Bulgaria       male  
    ## # ℹ 38 more rows
…
