…
``` r
astro |>
  summarise(year_of_selection)
```

    ## Warning: Returning more (or less) than 1 row per `summarise()` group was deprecated in
    ## dplyr 1.1.0.
    ## ℹ Please use `reframe()` instead.
    ## ℹ When switching from `summarise()` to `reframe()`, remember that `reframe()`
    ##   always returns an ungrouped data frame and adjust accordingly.
    ## Call `lifecycle::last_lifecycle_warnings()` to see where this warning was
    ## generated.

    ## # A tibble: 1,277 × 1
    ##    year_of_selection
    ##                <dbl>
    ##  1              1960
    ##  2              1960
    ##  3              1959
    ##  4              1959
    ##  5              1959
    ##  6              1960
    ##  7              1960
    ##  8              1960
    ##  9              1960
    ## 10              1959
    ## # ℹ 1,267 more rows
…
From the data, we observe that space missions began around 1959, which
aligns with historical records, as the Soviet Union launched the first
satellite, Sputnik, into space in 1957. Consequently, it’s possible that
the dataset may not include data for the years 1957-1958.

**Mean mission years**

``` r
astro |>
  group_by(nationality) |>
  summarise(mean_mission = mean(year_of_mission))
```

    ## # A tibble: 40 × 2
    ##    nationality    mean_mission
    ##    <chr>                 <dbl>
    ##  1 Afghanistan           1988 
    ##  2 Australia             1997.
    ##  3 Austria               1991 
    ##  4 Belgium               2001 
    ##  5 Brazil                2006 
    ##  6 Bulgaria              1984.
    ##  7 Canada                2001.
    ##  8 China                 2010.
    ##  9 Cuba                  1980 
    ## 10 Czechoslovakia        1978 
    ## # ℹ 30 more rows
…
It is evident that the majority of the occupations fall under the MSP
(Mission Specialist) title, and interestingly, there are more commanders
than pilots. As of now the number of space tourists are less, but it is
interesting to know that people are going to space which will be more in
the coming future.

**Distribution of Nationalities in the Astronaut Dataset**

``` r
astro |>
  group_by(nationality) |>
  summarize(count_nation = n())
```

    ## # A tibble: 40 × 2
    ##    nationality    count_nation
    ##    <chr>                 <int>
    ##  1 Afghanistan               1
    ##  2 Australia                 4
    ##  3 Austria                   1
    ##  4 Belgium                   3
    ##  5 Brazil                    1
    ##  6 Bulgaria                  2
    ##  7 Canada                   18
    ##  8 China                    14
    ##  9 Cuba                      1
    ## 10 Czechoslovakia            1
    ## # ℹ 30 more rows
…
``` r
patterns_in_duration <- astro |>
  group_by(in_orbit) |>
  summarize(
    mean_duration = mean(total_hrs_sum),
    median_duration = median(total_hrs_sum),
    min_duration = min(total_hrs_sum),
    max_duration = max(total_hrs_sum)
  )
patterns_in_duration
```

    ## # A tibble: 289 × 5
    ##    in_orbit  mean_duration median_duration min_duration max_duration
    ##    <chr>             <dbl>           <dbl>        <dbl>        <dbl>
    ##  1 ASTP               490.            508          217.         746 
    ##  2 Apollo 10          636.            565          508          836.
    ##  3 Apollo 11          254.            266          206          289 
    ##  4 Apollo 12         1056.           1179          316.        1672.
    ##  5 Apollo 13          333.            142          142          715.
    ##  6 Apollo 14          216.            216          216          216.
    ##  7 Apollo 15          379.            295.         295          546 
    ##  8 Apollo 16          536.            508          265          836.
    ##  9 Apollo 17          389             301          301          565 
    ## 10 Apollo 7           272.            260.         260          295.
    ## # ℹ 279 more rows
…
