…
    ## `summarise()` has grouped output by 'year_of_mission'. You can override using
    ## the `.groups` argument.

``` r
df1_summary
```

    ## # A tibble: 82 × 4
    ## # Groups:   year_of_mission [55]
    ##    year_of_mission sex   total_missions mean_missions
    ##              <dbl> <chr>          <int>         <dbl>
    ##  1            1962 male               2          1   
    ##  2            1964 male               1          1   
    ##  3            1965 male               6          2.67
    ##  4            1966 male               4          3.5 
    ##  5            1968 male               3          1   
    ##  6            1969 male               6          2.67
    ##  7            1970 male               6          2.83
    ##  8            1971 male               8          1.38
    ##  9            1972 male               2          2   
    ## 10            1973 male               7          2.14
    ## # ℹ 72 more rows
…
    ## `summarise()` has grouped output by 'year_of_mission'. You can override using
    ## the `.groups` argument.

``` r
df2_summary
```

    ## # A tibble: 85 × 4
    ## # Groups:   year_of_mission [57]
    ##    year_of_mission sex    total_missions mean_missions
    ##              <dbl> <chr>           <int>         <dbl>
    ##  1            1961 male                1          1   
    ##  2            1962 male                2          2.5 
    ##  3            1963 female              2          1   
    ##  4            1965 male                5          1.8 
    ##  5            1966 male                1          4   
    ##  6            1967 male                1          2   
    ##  7            1968 male                4          1.75
    ##  8            1969 male               10          2.3 
    ##  9            1971 male                7          2.14
    ## 10            1972 male                2          1   
    ## # ℹ 75 more rows
…
    ## `summarise()` has grouped output by 'year_of_mission'. You can override using
    ## the `.groups` argument.

``` r
df3_summary
```

    ## # A tibble: 87 × 4
    ## # Groups:   year_of_mission [59]
    ##    year_of_mission sex    total_missions mean_missions
    ##              <dbl> <chr>           <int>         <dbl>
    ##  1            1961 male                1          1   
    ##  2            1962 male                1          2   
    ##  3            1963 female              1          1   
    ##  4            1963 male                1          2   
    ##  5            1964 male                3          1   
    ##  6            1965 male                7          3.14
    ##  7            1966 male                3          3.33
    ##  8            1967 male                1          2   
    ##  9            1968 male                1          1   
    ## 10            1969 male               11          2.82
    ## # ℹ 77 more rows
…
    ## `summarise()` has grouped output by 'year_of_mission'. You can override using
    ## the `.groups` argument.

``` r
df4_summary
```

    ## # A tibble: 80 × 4
    ## # Groups:   year_of_mission [56]
    ##    year_of_mission sex   total_missions mean_missions
    ##              <dbl> <chr>          <int>         <dbl>
    ##  1            1962 male               2          2.5 
    ##  2            1964 male               2          1.5 
    ##  3            1965 male               6          3   
    ##  4            1966 male               7          2.86
    ##  5            1968 male               1          1   
    ##  6            1969 male               8          3.12
    ##  7            1970 male               8          1.75
    ##  8            1971 male               5          1.6 
    ##  9            1972 male               1          1   
    ## 10            1973 male               7          1.86
    ## # ℹ 70 more rows
…
    ## `summarise()` has grouped output by 'year_of_mission'. You can override using
    ## the `.groups` argument.

``` r
df5_summary
```

    ## # A tibble: 80 × 4
    ## # Groups:   year_of_mission [57]
    ##    year_of_mission sex   total_missions mean_missions
    ##              <dbl> <chr>          <int>         <dbl>
    ##  1            1962 male               2          1.5 
    ##  2            1963 male               2          3   
    ##  3            1964 male               2          1.5 
    ##  4            1965 male               6          3.17
    ##  5            1966 male               4          3   
    ##  6            1967 male               1          2   
    ##  7            1968 male               5          1.6 
    ##  8            1969 male               6          2.33
    ##  9            1970 male               1          1   
    ## 10            1971 male               4          2.75
    ## # ℹ 70 more rows
…
